<?xml version="1.0" encoding="UTF-8"?>
<CustomTab xmlns="http://soap.sforce.com/2006/04/metadata">
    <label>Inline Edit Table</label>
    <lwcComponent>inlineEditTable</lwcComponent>
    <motif>Custom57: Building Block</motif>
</CustomTab>
