<?xml version="1.0" encoding="UTF-8"?>
<CustomTab xmlns="http://soap.sforce.com/2006/04/metadata">
    <label>Search Filter</label>
    <lwcComponent>searchFilter</lwcComponent>
    <motif>Custom21: Computer</motif>
</CustomTab>
